lab6/test_run_dir/DisplayTest_should_pass/Display.vcd
$date
2026-03-26T13:11+0000
$end
$version
0.2
$end
$comment

$end
$timescale 1ns  $end
$scope module Display $end
 $var wire 4 % io_an $end
 $var wire 1 ( clock $end
 $var wire 1 + reset $end
 $var wire 7 - io_seg $end
 $var wire 16 2 io_sw $end
 $var wire 1 4 dispMux $end
  $scope module dispMux.decoder $end
  $upscope $end
  $scope module dispMux $end
   $var wire 4 " io_an $end
   $var wire 1 # clock $end
   $var wire 4 $ select $end
   $var wire 7 & io_seg $end
   $var wire 8 ' io_sum $end
   $var wire 1 ) decoder $end
   $var wire 18 * displayReg $end
   $var wire 2 / countReg $end
   $var wire 8 0 io_price $end
   $var wire 4 1 input $end
   $var wire 1 3 reset $end
   $var wire 7 5 sevSeg $end
    $scope module decoder $end
     $var wire 4 ! io_in $end
     $var wire 7 , io_out $end
     $var wire 7 . sevSeg $end
    $upscope $end
  $upscope $end
$upscope $end
$enddefinitions $end
$dumpvars
b0000 $
b0000 %
b0000 "
b0000000 -
03
b0000000 ,
04
b00000000 '
b0000 !
b0000000 .
b00 /
b0000000 &
b000000000000000000 *
0#
b0000 1
b0000000000000000 2
0(
0)
b0000000 5
0+
b00000000 0
$end
#0
b1110 "
13
b0001 $
b1110 %
b0111111 5
b1000000 &
1+
b0111111 ,
b1000000 -
b0111111 .
#1
1#
1(
#6
b0100 !
0#
b0011001 &
b00010010 '
0(
0+
b1100110 ,
b0011001 -
b1100110 .
b00110100 0
b0100 1
b0001001000110100 2
03
b1100110 5
#11
b0011 !
b1101 "
1#
b0010 $
b1101 %
b0110000 &
1(
b000000000000000001 *
b1001111 ,
b0110000 -
b1001111 .
b01 /
b0011 1
b1001111 5
#16
0#
0(
#21
1#
1(
b000000000000000010 *
#26
0#
0(
#31
1#
1(
b000000000000000011 *
#36
0#
0(
#41
1#
1(
b000000000000000100 *
#46
0#
0(
#51
1#
1(
b000000000000000101 *
#56
0#
0(
#61
1#
1(
b000000000000000110 *
#66
0#
0(
#71
1#
1(
b000000000000000111 *
#76
0#
0(
#81
1#
1(
b000000000000001000 *
#86
0#
0(
#91
1#
1(
b000000000000001001 *
#96
0#
0(
#101
1#
1(
b000000000000001010 *
#106
0#
0(
#111
1#
1(
b000000000000001011 *
#116
0#
0(
#121
1#
1(
b000000000000001100 *
#126
0#
0(
#131
1#
1(
b000000000000001101 *
#136
0#
0(
#141
1#
1(
b000000000000001110 *
#146
0#
0(
#151
1#
1(
b000000000000001111 *
#156
0#
0(
#161
1#
1(
b000000000000010000 *
#166
0#
0(
#171
1#
1(
b000000000000010001 *
#176
0#
0(
#181
1#
1(
b000000000000010010 *
#186
0#
0(
#191
1#
1(
b000000000000010011 *
#196
0#
0(
#201
1#
1(
b000000000000000000 *
#206
0#
0(
#211
b0010 !
b1011 "
1#
b0100 $
b1011 %
b0100100 &
1(
b000000000000000001 *
b1011011 ,
b0100100 -
b1011011 .
b10 /
b0010 1
b1011011 5
#216
0#
0(
#221
1#
1(
b000000000000000010 *
#226
0#
0(
#231
1#
1(
b000000000000000011 *
#236
0#
0(
#241
1#
1(
b000000000000000100 *
#246
0#
0(
#251
1#
1(
b000000000000000101 *
#256
0#
0(
#261
1#
1(
b000000000000000110 *
#266
0#
0(
#271
1#
1(
b000000000000000111 *
#276
0#
0(
#281
1#
1(
b000000000000001000 *
#286
0#
0(
#291
1#
1(
b000000000000001001 *
#296
0#
0(
#301
1#
1(
b000000000000001010 *
#306
0#
0(
#311
1#
1(
b000000000000001011 *
#316
0#
0(
#321
1#
1(
b000000000000001100 *
#326
0#
0(
#331
1#
1(
b000000000000001101 *
#336
0#
0(
#341
1#
1(
b000000000000001110 *
#346
0#
0(
#351
1#
1(
b000000000000001111 *
#356
0#
0(
#361
1#
1(
b000000000000010000 *
#366
0#
0(
#371
1#
1(
b000000000000010001 *
#376
0#
0(
#381
1#
1(
b000000000000010010 *
#386
0#
0(
#391
1#
1(
b000000000000010011 *
#396
0#
0(
#401
1#
1(
b000000000000000000 *
#406
0#
0(
#411
b0001 !
b0111 "
1#
b1000 $
b0111 %
b1111001 &
1(
b000000000000000001 *
b0000110 ,
b1111001 -
b0000110 .
b11 /
b0001 1
b0000110 5
#416
0#
0(
#421
1#
1(
b000000000000000010 *
#426
0#
0(
#431
1#
1(
b000000000000000011 *
#436
0#
0(
#441
1#
1(
b000000000000000100 *
#446
0#
0(
#451
1#
1(
b000000000000000101 *
#456
0#
0(
#461
1#
1(
b000000000000000110 *
#466
0#
0(
#471
1#
1(
b000000000000000111 *
#476
0#
0(
#481
1#
1(
b000000000000001000 *
#486
0#
0(
#491
1#
1(
b000000000000001001 *
#496
0#
0(
#501
1#
1(
b000000000000001010 *
#506
0#
0(
#511
1#
1(
b000000000000001011 *
#516
0#
0(
#521
1#
1(
b000000000000001100 *
#526
0#
0(
#531
1#
1(
b000000000000001101 *
#536
0#
0(
#541
1#
1(
b000000000000001110 *
#546
0#
0(
#551
1#
1(
b000000000000001111 *
#556
0#
0(
#561
1#
1(
b000000000000010000 *
#566
0#
0(
#571
1#
1(
b000000000000010001 *
#576
0#
0(
#581
1#
1(
b000000000000010010 *
#586
0#
0(
#591
1#
1(
b000000000000010011 *
#596
0#
0(
#601
1#
1(
b000000000000000000 *
#606
0#
0(
#611
b0100 !
b1110 "
1#
b0001 $
b1110 %
b0011001 &
1(
b000000000000000001 *
b1100110 ,
b0011001 -
b1100110 .
b00 /
b0100 1
b1100110 5
#616
0#
0(
#621
1#
1(
b000000000000000010 *
#626
0#
0(
#631
1#
1(
b000000000000000011 *
#636
0#
0(
#641
1#
1(
b000000000000000100 *
#646
0#
0(
#651
1#
1(
b000000000000000101 *
#656
0#
0(
#661
1#
1(
b000000000000000110 *
#666
0#
0(
#671
1#
1(
b000000000000000111 *
#676
0#
0(
#681
1#
1(
b000000000000001000 *
#686
0#
0(
#691
1#
1(
b000000000000001001 *
#696
0#
0(
#701
1#
1(
b000000000000001010 *
#706
0#
0(
#711
1#
1(
b000000000000001011 *
#716
0#
0(
#721
1#
1(
b000000000000001100 *
#726
0#
0(
#731
1#
1(
b000000000000001101 *
#736
0#
0(
#741
1#
1(
b000000000000001110 *
#746
0#
0(
#751
1#
1(
b000000000000001111 *
#756
0#
0(
#761
1#
1(
b000000000000010000 *
#766
0#
0(
#771
1#
1(
b000000000000010001 *
#776
0#
0(
#781
1#
1(
b000000000000010010 *
#786
0#
0(
#791
1#
1(
b000000000000010011 *
#796
0#
0(
#801
1#
1(
b000000000000000000 *
#806
0#
0(
#811
b0011 !
b1101 "
1#
b0010 $
b1101 %
b0110000 &
1(
b000000000000000001 *
b1001111 ,
b0110000 -
b1001111 .
b01 /
b0011 1
b1001111 5
#816
0#
0(
#821
1#
1(
b000000000000000010 *
#826
0#
0(
#831
1#
1(
b000000000000000011 *
#836
0#
0(
#841
1#
1(
b000000000000000100 *
#846
0#
0(
#851
1#
1(
b000000000000000101 *
#856
0#
0(
#861
1#
1(
b000000000000000110 *
#866
0#
0(
#871
1#
1(
b000000000000000111 *
#876
0#
0(
#881
1#
1(
b000000000000001000 *
#886
0#
0(
#891
1#
1(
b000000000000001001 *
#896
0#
0(
#901
1#
1(
b000000000000001010 *
#906
0#
0(
#911
1#
1(
b000000000000001011 *
#916
0#
0(
#921
1#
1(
b000000000000001100 *
#926
0#
0(
#931
1#
1(
b000000000000001101 *
#936
0#
0(
#941
1#
1(
b000000000000001110 *
#946
0#
0(
#951
1#
1(
b000000000000001111 *
#956
0#
0(
#961
1#
1(
b000000000000010000 *
#966
0#
0(
#971
1#
1(
b000000000000010001 *
#976
0#
0(
#981
1#
1(
b000000000000010010 *
#986
0#
0(
#991
1#
1(
b000000000000010011 *
#996
0#
0(
#1001
1#
1(
b000000000000000000 *
#1006
0#
0(
#1011
b0010 !
b1011 "
1#
b0100 $
b1011 %
b0100100 &
1(
b000000000000000001 *
b1011011 ,
b0100100 -
b1011011 .
b10 /
b0010 1
b1011011 5
#1016
0#
0(
#1021
1#
1(
b000000000000000010 *
#1026
0#
0(
#1031
1#
1(
b000000000000000011 *
#1036
0#
0(
#1041
1#
1(
b000000000000000100 *
#1046
0#
0(
#1051
1#
1(
b000000000000000101 *
#1056
0#
0(
#1061
1#
1(
b000000000000000110 *
#1066
0#
0(
#1071
1#
1(
b000000000000000111 *
#1076
0#
0(
#1081
1#
1(
b000000000000001000 *
#1086
0#
0(
#1091
1#
1(
b000000000000001001 *
#1096
0#
0(
#1101
1#
1(
b000000000000001010 *
#1106
0#
0(
#1111
1#
1(
b000000000000001011 *
#1116
0#
0(
#1121
1#
1(
b000000000000001100 *
#1126
0#
0(
#1131
1#
1(
b000000000000001101 *
#1136
0#
0(
#1141
1#
1(
b000000000000001110 *
#1146
0#
0(
#1151
1#
1(
b000000000000001111 *
#1156
0#
0(
#1161
1#
1(
b000000000000010000 *
#1166
0#
0(
#1171
1#
1(
b000000000000010001 *
#1176
0#
0(
#1181
1#
1(
b000000000000010010 *
#1186
0#
0(
#1191
1#
1(
b000000000000010011 *
#1196
0#
0(
#1201
1#
1(
b000000000000000000 *
#1206
0#
0(
#1211
b0001 !
b0111 "
1#
b1000 $
b0111 %
b1111001 &
1(
b000000000000000001 *
b0000110 ,
b1111001 -
b0000110 .
b11 /
b0001 1
b0000110 5
#1216
0#
0(
#1221
1#
1(
b000000000000000010 *
#1226
0#
0(
#1231
1#
1(
b000000000000000011 *
#1236
0#
0(
#1241
1#
1(
b000000000000000100 *
#1246
0#
0(
#1251
1#
1(
b000000000000000101 *
#1256
0#
0(
#1261
1#
1(
b000000000000000110 *
#1266
0#
0(
#1271
1#
1(
b000000000000000111 *
#1276
0#
0(
#1281
1#
1(
b000000000000001000 *
#1286
0#
0(
#1291
1#
1(
b000000000000001001 *
#1296
0#
0(
#1301
1#
1(
b000000000000001010 *
#1306
0#
0(
#1311
1#
1(
b000000000000001011 *
#1316
0#
0(
#1321
1#
1(
b000000000000001100 *
#1326
0#
0(
#1331
1#
1(
b000000000000001101 *
#1336
0#
0(
#1341
1#
1(
b000000000000001110 *
#1346
0#
0(
#1351
1#
1(
b000000000000001111 *
#1356
0#
0(
#1361
1#
1(
b000000000000010000 *
#1366
0#
0(
#1371
1#
1(
b000000000000010001 *
#1376
0#
0(
#1381
1#
1(
b000000000000010010 *
#1386
0#
0(
#1391
1#
1(
b000000000000010011 *
#1396
0#
0(
#1401
1#
1(
b000000000000000000 *
#1406
0#
0(
#1411
b0100 !
b1110 "
1#
b0001 $
b1110 %
b0011001 &
1(
b000000000000000001 *
b1100110 ,
b0011001 -
b1100110 .
b00 /
b0100 1
b1100110 5
#1416
0#
0(
#1421
1#
1(
b000000000000000010 *
#1426
0#
0(
#1431
1#
1(
b000000000000000011 *
#1436
0#
0(
#1441
1#
1(
b000000000000000100 *
#1446
0#
0(
#1451
1#
1(
b000000000000000101 *
#1456
0#
0(
#1461
1#
1(
b000000000000000110 *
#1466
0#
0(
#1471
1#
1(
b000000000000000111 *
#1476
0#
0(
#1481
1#
1(
b000000000000001000 *
#1486
0#
0(
#1491
1#
1(
b000000000000001001 *
#1496
0#
0(
#1501
1#
1(
b000000000000001010 *
#1506
0#
0(
#1511
1#
1(
b000000000000001011 *
#1516
0#
0(
#1521
1#
1(
b000000000000001100 *
#1526
0#
0(
#1531
1#
1(
b000000000000001101 *
#1536
0#
0(
#1541
1#
1(
b000000000000001110 *
#1546
0#
0(
#1551
1#
1(
b000000000000001111 *
#1556
0#
0(
#1561
1#
1(
b000000000000010000 *
#1566
0#
0(
#1571
1#
1(
b000000000000010001 *
#1576
0#
0(
#1581
1#
1(
b000000000000010010 *
#1586
0#
0(
#1591
1#
1(
b000000000000010011 *
#1596
0#
0(
#1601
1#
1(
b000000000000000000 *
#1606
0#
0(
#1611
b0011 !
b1101 "
1#
b0010 $
b1101 %
b0110000 &
1(
b000000000000000001 *
b1001111 ,
b0110000 -
b1001111 .
b01 /
b0011 1
b1001111 5
#1616
0#
0(
#1621
1#
1(
b000000000000000010 *
#1626
0#
0(
#1631
1#
1(
b000000000000000011 *
#1636
0#
0(
#1641
1#
1(
b000000000000000100 *
#1646
0#
0(
#1651
1#
1(
b000000000000000101 *
#1656
0#
0(
#1661
1#
1(
b000000000000000110 *
#1666
0#
0(
#1671
1#
1(
b000000000000000111 *
#1676
0#
0(
#1681
1#
1(
b000000000000001000 *
#1686
0#
0(
#1691
1#
1(
b000000000000001001 *
#1696
0#
0(
#1701
1#
1(
b000000000000001010 *
#1706
0#
0(
#1711
1#
1(
b000000000000001011 *
#1716
0#
0(
#1721
1#
1(
b000000000000001100 *
#1726
0#
0(
#1731
1#
1(
b000000000000001101 *
#1736
0#
0(
#1741
1#
1(
b000000000000001110 *
#1746
0#
0(
#1751
1#
1(
b000000000000001111 *
#1756
0#
0(
#1761
1#
1(
b000000000000010000 *
#1766
0#
0(
#1771
1#
1(
b000000000000010001 *
#1776
0#
0(
#1781
1#
1(
b000000000000010010 *
#1786
0#
0(
#1791
1#
1(
b000000000000010011 *
#1796
0#
0(
#1801
1#
1(
b000000000000000000 *
#1806
0#
0(
#1811
b0010 !
b1011 "
1#
b0100 $
b1011 %
b0100100 &
1(
b000000000000000001 *
b1011011 ,
b0100100 -
b1011011 .
b10 /
b0010 1
b1011011 5
#1816
0#
0(
#1821
1#
1(
b000000000000000010 *
#1826
0#
0(
#1831
1#
1(
b000000000000000011 *
#1836
0#
0(
#1841
1#
1(
b000000000000000100 *
#1846
0#
0(
#1851
1#
1(
b000000000000000101 *
#1856
0#
0(
#1861
1#
1(
b000000000000000110 *
#1866
0#
0(
#1871
1#
1(
b000000000000000111 *
#1876
0#
0(
#1881
1#
1(
b000000000000001000 *
#1886
0#
0(
#1891
1#
1(
b000000000000001001 *
#1896
0#
0(
#1901
1#
1(
b000000000000001010 *
#1906
0#
0(
#1911
1#
1(
b000000000000001011 *
#1916
0#
0(
#1921
1#
1(
b000000000000001100 *
#1926
0#
0(
#1931
1#
1(
b000000000000001101 *
#1936
0#
0(
#1941
1#
1(
b000000000000001110 *
#1946
0#
0(
#1951
1#
1(
b000000000000001111 *
#1956
0#
0(
#1961
1#
1(
b000000000000010000 *
#1966
0#
0(
#1971
1#
1(
b000000000000010001 *
#1976
0#
0(
#1981
1#
1(
b000000000000010010 *
#1986
0#
0(
#1991
1#
1(
b000000000000010011 *
#1996
0#
0(
#2001
1#
1(
b000000000000000000 *
#2006
b0000000000000000 2
0(
