lab5/test_run_dir/SevenSegTest_should_pass/CountSevenSeg.vcd
$date
2026-03-12T13:08+0000
$end
$version
0.2
$end
$comment

$end
$timescale 1ns  $end
$scope module CountSevenSeg $end
 $var wire 4 # io_an $end
 $var wire 1 % clock $end
 $var wire 4 & blkReg $end
 $var wire 1 ' reset $end
 $var wire 7 ( io_seg $end
 $var wire 32 * cntReg $end
 $var wire 1 + sevSegDecoder $end
  $scope module sevSegDecoder $end
   $var wire 7 ! io_seg $end
   $var wire 7 " sevSeg $end
   $var wire 4 $ io_sw $end
   $var wire 4 ) io_an $end
  $upscope $end
$upscope $end
$enddefinitions $end
$dumpvars
b0000 $
b00000000000000000000000000000000 *
b0000 #
0%
b0000000 !
0'
b0000000 "
0+
b0000 )
b0000 &
b0000000 (
$end
#0
b1000000 !
b0111111 "
b1110 #
1'
b1000000 (
b1110 )
#1
1%
#6
0%
0'
#11
1%
b00000000000000000000000000000001 *
#16
0%
#21
1%
b00000000000000000000000000000010 *
#26
0%
#31
1%
b00000000000000000000000000000011 *
#36
0%
#41
1%
b00000000000000000000000000000100 *
#46
0%
#51
1%
b00000000000000000000000000000101 *
#56
0%
#61
1%
b00000000000000000000000000000110 *
#66
0%
#71
1%
b00000000000000000000000000000111 *
#76
0%
#81
1%
b00000000000000000000000000001000 *
#86
0%
#91
1%
b00000000000000000000000000001001 *
#96
0%
#101
1%
b00000000000000000000000000001010 *
#106
0%
#111
1%
b00000000000000000000000000001011 *
#116
0%
#121
1%
b00000000000000000000000000001100 *
#126
0%
#131
1%
b00000000000000000000000000001101 *
#136
0%
#141
1%
b00000000000000000000000000001110 *
#146
0%
#151
1%
b00000000000000000000000000001111 *
#156
0%
#161
1%
b00000000000000000000000000010000 *
#166
0%
#171
1%
b00000000000000000000000000010001 *
#176
0%
#181
1%
b00000000000000000000000000010010 *
#186
0%
#191
1%
b00000000000000000000000000010011 *
#196
0%
#201
1%
b00000000000000000000000000010100 *
#206
0%
#211
1%
b00000000000000000000000000010101 *
#216
0%
#221
1%
b00000000000000000000000000010110 *
#226
0%
#231
1%
b00000000000000000000000000010111 *
#236
0%
#241
1%
b00000000000000000000000000011000 *
#246
0%
#251
1%
b00000000000000000000000000011001 *
#256
0%
#261
1%
b00000000000000000000000000011010 *
#266
0%
#271
1%
b00000000000000000000000000011011 *
#276
0%
#281
1%
b00000000000000000000000000011100 *
#286
0%
#291
1%
b00000000000000000000000000011101 *
#296
0%
#301
1%
b00000000000000000000000000011110 *
#306
0%
#311
1%
b00000000000000000000000000011111 *
#316
0%
#321
1%
b00000000000000000000000000100000 *
#326
0%
#331
1%
b00000000000000000000000000100001 *
#336
0%
#341
1%
b00000000000000000000000000100010 *
#346
0%
#351
1%
b00000000000000000000000000100011 *
#356
0%
#361
1%
b00000000000000000000000000100100 *
#366
0%
#371
1%
b00000000000000000000000000100101 *
#376
0%
#381
1%
b00000000000000000000000000100110 *
#386
0%
#391
1%
b00000000000000000000000000100111 *
#396
0%
#401
1%
b00000000000000000000000000101000 *
#406
0%
#411
1%
b00000000000000000000000000101001 *
#416
0%
#421
1%
b00000000000000000000000000101010 *
#426
0%
#431
1%
b00000000000000000000000000101011 *
#436
0%
#441
1%
b00000000000000000000000000101100 *
#446
0%
#451
1%
b00000000000000000000000000101101 *
#456
0%
#461
1%
b00000000000000000000000000101110 *
#466
0%
#471
1%
b00000000000000000000000000101111 *
#476
0%
#481
1%
b00000000000000000000000000110000 *
#486
0%
#491
1%
b00000000000000000000000000110001 *
#496
0%
#501
1%
b00000000000000000000000000110010 *
#506
0%
#511
1%
b00000000000000000000000000110011 *
#516
0%
#521
1%
b00000000000000000000000000110100 *
#526
0%
#531
1%
b00000000000000000000000000110101 *
#536
0%
#541
1%
b00000000000000000000000000110110 *
#546
0%
#551
1%
b00000000000000000000000000110111 *
#556
0%
#561
1%
b00000000000000000000000000111000 *
#566
0%
#571
1%
b00000000000000000000000000111001 *
#576
0%
#581
1%
b00000000000000000000000000111010 *
#586
0%
#591
1%
b00000000000000000000000000111011 *
#596
0%
#601
1%
b00000000000000000000000000111100 *
#606
0%
#611
1%
b00000000000000000000000000111101 *
#616
0%
#621
1%
b00000000000000000000000000111110 *
#626
0%
#631
1%
b00000000000000000000000000111111 *
#636
0%
#641
1%
b00000000000000000000000001000000 *
#646
0%
#651
1%
b00000000000000000000000001000001 *
#656
0%
#661
1%
b00000000000000000000000001000010 *
#666
0%
#671
1%
b00000000000000000000000001000011 *
#676
0%
#681
1%
b00000000000000000000000001000100 *
#686
0%
#691
1%
b00000000000000000000000001000101 *
#696
0%
#701
1%
b00000000000000000000000001000110 *
#706
0%
#711
1%
b00000000000000000000000001000111 *
#716
0%
#721
1%
b00000000000000000000000001001000 *
#726
0%
#731
1%
b00000000000000000000000001001001 *
#736
0%
#741
1%
b00000000000000000000000001001010 *
#746
0%
#751
1%
b00000000000000000000000001001011 *
#756
0%
#761
1%
b00000000000000000000000001001100 *
#766
0%
#771
1%
b00000000000000000000000001001101 *
#776
0%
#781
1%
b00000000000000000000000001001110 *
#786
0%
#791
1%
b00000000000000000000000001001111 *
#796
0%
#801
1%
b00000000000000000000000001010000 *
#806
0%
#811
1%
b00000000000000000000000001010001 *
#816
0%
#821
1%
b00000000000000000000000001010010 *
#826
0%
#831
1%
b00000000000000000000000001010011 *
#836
0%
#841
1%
b00000000000000000000000001010100 *
#846
0%
#851
1%
b00000000000000000000000001010101 *
#856
0%
#861
1%
b00000000000000000000000001010110 *
#866
0%
#871
1%
b00000000000000000000000001010111 *
#876
0%
#881
1%
b00000000000000000000000001011000 *
#886
0%
#891
1%
b00000000000000000000000001011001 *
#896
0%
#901
1%
b00000000000000000000000001011010 *
#906
0%
#911
1%
b00000000000000000000000001011011 *
#916
0%
#921
1%
b00000000000000000000000001011100 *
#926
0%
#931
1%
b00000000000000000000000001011101 *
#936
0%
#941
1%
b00000000000000000000000001011110 *
#946
0%
#951
1%
b00000000000000000000000001011111 *
#956
0%
#961
1%
b00000000000000000000000001100000 *
#966
0%
#971
1%
b00000000000000000000000001100001 *
#976
0%
#981
1%
b00000000000000000000000001100010 *
#986
0%
#991
1%
b00000000000000000000000001100011 *
#996
0%
#1001
1%
b00000000000000000000000001100100 *
