vending/test_run_dir/Vending_machine_test_should_pass/VendingMachine.vcd
$date
2026-04-16T09:29+0000
$end
$version
0.2
$end
$comment

$end
$timescale 1ns  $end
$scope module VendingMachine $end
 $var wire 1 ! coin2Edge $end
 $var wire 1 # buyEdge_REG $end
 $var wire 4 % onesDigit $end
 $var wire 4 & activeDigit $end
 $var wire 4 ' io_an $end
 $var wire 4 ( tensDigit $end
 $var wire 2 ) selReg $end
 $var wire 8 * totalMoney $end
 $var wire 1 + io_alarm $end
 $var wire 1 , io_releaseCan $end
 $var wire 1 - reset $end
 $var wire 32 . cntReg $end
 $var wire 1 / blinkReg $end
 $var wire 1 0 coin2Edge_REG $end
 $var wire 5 1 io_price $end
 $var wire 1 2 sevSegDecoder $end
 $var wire 1 3 signalCoin2 $end
 $var wire 1 4 signalCoin5 $end
 $var wire 32 5 blinkCounter $end
 $var wire 1 6 signalSub $end
 $var wire 1 7 coin5Edge_REG $end
 $var wire 4 8 priceTens $end
 $var wire 1 9 io_buy $end
 $var wire 1 : io_coin5 $end
 $var wire 1 ; io_coin2 $end
 $var wire 1 < clock $end
 $var wire 7 = io_seg $end
 $var wire 2 > stateReg $end
 $var wire 1 @ coin5Edge $end
 $var wire 1 A buyEdge $end
 $var wire 4 B priceOnes $end
  $scope module sevSegDecoder $end
   $var wire 7 " io_out $end
   $var wire 7 $ sevSeg $end
   $var wire 4 ? io_in $end
  $upscope $end
$upscope $end
$enddefinitions $end
$dumpvars
00
b00000000 *
b0000 B
02
03
04
06
b0000 ?
07
09
0:
0;
0<
0@
b00 )
0A
b0000000 =
b00000000000000000000000000000000 5
b00000000000000000000000000000000 .
b00000 1
b0000 %
b0000000 "
b0000000 $
b0000 (
b0000 &
b0000 '
0!
0#
0+
b00 >
b0000 8
0,
0-
0/
$end
#0
b0111111 "
b0111111 $
b0111 &
b0111 '
1-
b1000000 =
#1
1<
#6
b00111 1
b0111 B
0<
0-
#11
b00000000000000000000000000000001 5
1<
b00000000000000000000000000000001 .
#16
0<
#21
b00000000000000000000000000000010 5
1<
b00000000000000000000000000000010 .
#26
0<
#31
b00000000000000000000000000000011 5
1<
b00000000000000000000000000000011 .
#36
1!
13
1;
0<
#41
10
0!
03
b0010 %
b00000000000000000000000000000100 5
b00000010 *
1<
b00000000000000000000000000000100 .
#46
0<
#51
b00000000000000000000000000000101 5
1<
b00000000000000000000000000000101 .
#56
0<
#61
b00000000000000000000000000000110 5
1<
b00000000000000000000000000000110 .
#66
0;
0<
#71
00
b00000000000000000000000000000111 5
1<
b00000000000000000000000000000111 .
#76
0<
#81
b00000000000000000000000000001000 5
1<
b00000000000000000000000000001000 .
#86
0<
#91
b00000000000000000000000000001001 5
1<
b00000000000000000000000000001001 .
#96
0<
#101
b00000000000000000000000000001010 5
1<
b00000000000000000000000000001010 .
#106
0<
#111
b00000000000000000000000000001011 5
1<
b00000000000000000000000000001011 .
#116
0<
#121
b00000000000000000000000000001100 5
1<
b00000000000000000000000000001100 .
#126
1@
14
1:
0<
#131
0@
04
b0111 %
b00000000000000000000000000001101 5
17
b00000111 *
1<
b00000000000000000000000000001101 .
#136
0<
#141
b00000000000000000000000000001110 5
1<
b00000000000000000000000000001110 .
#146
0<
#151
b00000000000000000000000000001111 5
1<
b00000000000000000000000000001111 .
#156
0:
0<
#161
b00000000000000000000000000010000 5
07
1<
b00000000000000000000000000010000 .
#166
0<
#171
b00000000000000000000000000010001 5
1<
b00000000000000000000000000010001 .
#176
0<
#181
b00000000000000000000000000010010 5
1<
b00000000000000000000000000010010 .
#186
0<
#191
b00000000000000000000000000010011 5
1<
b00000000000000000000000000010011 .
#196
0<
#201
b00000000000000000000000000010100 5
1<
b00000000000000000000000000010100 .
#206
0<
#211
b00000000000000000000000000010101 5
1<
b00000000000000000000000000010101 .
#216
0<
#221
b00000000000000000000000000010110 5
1<
b00000000000000000000000000010110 .
#226
0<
#231
b00000000000000000000000000010111 5
1<
b00000000000000000000000000010111 .
#236
1A
16
19
0<
#241
0A
1#
b0000 %
b00000000000000000000000000011000 5
06
b00000000 *
1,
1<
b00000000000000000000000000011000 .
b01 >
#246
0<
#251
b00000000000000000000000000011001 5
1<
b00000000000000000000000000011001 .
#256
0<
#261
b00000000000000000000000000011010 5
1<
b00000000000000000000000000011010 .
#266
09
0<
#271
0#
b00000000000000000000000000011011 5
0,
1<
b00000000000000000000000000011011 .
b00 >
#276
0<
#281
b00000000000000000000000000011100 5
1<
b00000000000000000000000000011100 .
#286
0<
#291
b00000000000000000000000000011101 5
1<
b00000000000000000000000000011101 .
#296
0<
#301
b00000000000000000000000000011110 5
1<
b00000000000000000000000000011110 .
#306
0<
#311
b00000000000000000000000000011111 5
1<
b00000000000000000000000000011111 .
#316
0<
#321
b00000000000000000000000000100000 5
1<
b00000000000000000000000000100000 .
#326
0<
#331
b00000000000000000000000000100001 5
1<
b00000000000000000000000000100001 .
#336
0<
#341
b00000000000000000000000000100010 5
1<
b00000000000000000000000000100010 .
#346
0<
#351
b00000000000000000000000000100011 5
1<
b00000000000000000000000000100011 .
#356
0<
#361
b00000000000000000000000000100100 5
1<
b00000000000000000000000000100100 .
#366
b00000 1
0<
